<svg xmlns="http://www.w3.org/2000/svg" width="24" height="19.992" viewBox="0 0 24 19.992">
  <path id="e9de" d="M13.008,12H4.992a5.075,5.075,0,0,0-1.945.375,5.232,5.232,0,0,0-1.594,1.066A4.683,4.683,0,0,0,.4,15.023,4.873,4.873,0,0,0,0,16.992v1.992a1,1,0,0,0,.27.738,1,1,0,0,0,.738.27.966.966,0,0,0,.715-.27,1,1,0,0,0,.27-.738V16.992a2.962,2.962,0,0,1,3-3h8.016a2.962,2.962,0,0,1,3,3v1.992a1,1,0,0,0,.27.738.966.966,0,0,0,.715.27A.932.932,0,0,0,18,18.984V16.992a4.873,4.873,0,0,0-.4-1.969,4.683,4.683,0,0,0-1.055-1.582,5.232,5.232,0,0,0-1.594-1.066A5.075,5.075,0,0,0,13.008,12ZM9,9.984a5.136,5.136,0,0,0,1.969-.375,4.992,4.992,0,0,0,2.648-2.648,5.136,5.136,0,0,0,.375-1.969,5.136,5.136,0,0,0-.375-1.969A4.992,4.992,0,0,0,10.969.375a5.355,5.355,0,0,0-3.937,0A4.992,4.992,0,0,0,4.383,3.023a5.136,5.136,0,0,0-.375,1.969,5.136,5.136,0,0,0,.375,1.969A4.992,4.992,0,0,0,7.031,9.609,5.136,5.136,0,0,0,9,9.984ZM9,1.992a2.962,2.962,0,0,1,3,3,2.962,2.962,0,0,1-3,3,2.962,2.962,0,0,1-3-3,2.962,2.962,0,0,1,3-3Zm11.2,10.2a1.122,1.122,0,0,0-.75.129.8.8,0,0,0-.445.574.994.994,0,0,0,.117.75.834.834,0,0,0,.586.445,2.725,2.725,0,0,1,1.57,1.043,3.012,3.012,0,0,1,.609,1.863v1.992a.974.974,0,0,0,.281.738,1.114,1.114,0,0,0,1.453,0,.974.974,0,0,0,.281-.738V16.992a4.666,4.666,0,0,0-3.7-4.8ZM16.2.188a.8.8,0,0,0-.715.059A1.089,1.089,0,0,0,15,.891a1.122,1.122,0,0,0,.129.75.8.8,0,0,0,.574.445,2.961,2.961,0,0,1,1.852,1.371,2.96,2.96,0,0,1,.352,2.332,3.136,3.136,0,0,1-2.2,2.2.905.905,0,0,0-.609.445.814.814,0,0,0-.094.75.913.913,0,0,0,.352.586,1.064,1.064,0,0,0,.656.211H16.2a5.351,5.351,0,0,0,2.332-1.312A4.47,4.47,0,0,0,19.8,6.4a5.448,5.448,0,0,0,.117-2.062,5.5,5.5,0,0,0-.645-1.875A4.558,4.558,0,0,0,18,1.031,4.678,4.678,0,0,0,16.2.188Zm7.8,19.8" fill="#3b3b3b"/>
</svg>
